-------------------------------------------------------------------------------
Test set: com.daoedeflo.DAO.ConnectorDAOTest
-------------------------------------------------------------------------------
Tests run: 2, Failures: 0, Errors: 0, Skipped: 0, Time elapsed: 0.004 sec
