-------------------------------------------------------------------------------
Test set: com.daoedeflo.DAO.MitarbeiterDAOTest
-------------------------------------------------------------------------------
Tests run: 8, Failures: 0, Errors: 0, Skipped: 0, Time elapsed: 0.002 sec
