<?xml version="1.0" encoding="UTF-8" ?>
<testsuite tests="29" failures="0" name="com.daoedeflo.dataclass.ArbeitsZeitTest" time="0.015" errors="0" skipped="0">
  <properties>
    <property name="idea.version" value="14.0.2"/>
    <property name="java.runtime.name" value="Java(TM) SE Runtime Environment"/>
    <property name="sun.boot.library.path" value="/usr/lib/jvm/java-8-jdk/jre/lib/amd64"/>
    <property name="java.vm.version" value="25.25-b02"/>
    <property name="java.vm.vendor" value="Oracle Corporation"/>
    <property name="java.vendor.url" value="http://java.oracle.com/"/>
    <property name="path.separator" value=":"/>
    <property name="guice.disable.misplaced.annotation.check" value="true"/>
    <property name="java.vm.name" value="Java HotSpot(TM) 64-Bit Server VM"/>
    <property name="file.encoding.pkg" value="sun.io"/>
    <property name="idea.launcher.port" value="7534"/>
    <property name="user.country" value="US"/>
    <property name="sun.java.launcher" value="SUN_STANDARD"/>
    <property name="sun.os.patch.level" value="unknown"/>
    <property name="java.vm.specification.name" value="Java Virtual Machine Specification"/>
    <property name="user.dir" value="/root/code/ProjektStundenVerwaltung"/>
    <property name="java.runtime.version" value="1.8.0_25-b17"/>
    <property name="java.awt.graphicsenv" value="sun.awt.X11GraphicsEnvironment"/>
    <property name="java.endorsed.dirs" value="/usr/lib/jvm/java-8-jdk/jre/lib/endorsed"/>
    <property name="os.arch" value="amd64"/>
    <property name="java.io.tmpdir" value="/tmp"/>
    <property name="line.separator" value="
"/>
    <property name="java.vm.specification.vendor" value="Oracle Corporation"/>
    <property name="os.name" value="Linux"/>
    <property name="classworlds.conf" value="/opt/maven/bin/m2.conf"/>
    <property name="sun.jnu.encoding" value="ANSI_X3.4-1968"/>
    <property name="java.library.path" value="/opt/idea-IU-139.659.2/bin::/usr/java/packages/lib/amd64:/usr/lib64:/lib64:/lib:/usr/lib"/>
    <property name="java.specification.name" value="Java Platform API Specification"/>
    <property name="java.class.version" value="52.0"/>
    <property name="sun.management.compiler" value="HotSpot 64-Bit Tiered Compilers"/>
    <property name="os.version" value="3.17.6-1-ARCH"/>
    <property name="user.home" value="/root"/>
    <property name="user.timezone" value="Europe/Vienna"/>
    <property name="java.awt.printerjob" value="sun.print.PSPrinterJob"/>
    <property name="java.specification.version" value="1.8"/>
    <property name="idea.launcher.bin.path" value="/opt/idea-IU-139.659.2/bin"/>
    <property name="file.encoding" value="UTF-8"/>
    <property name="user.name" value="root"/>
    <property name="java.class.path" value="/opt/maven/boot/plexus-classworlds-2.5.2.jar:/opt/idea-IU-139.659.2/lib/idea_rt.jar"/>
    <property name="java.vm.specification.version" value="1.8"/>
    <property name="sun.arch.data.model" value="64"/>
    <property name="java.home" value="/usr/lib/jvm/java-8-jdk/jre"/>
    <property name="sun.java.command" value="com.intellij.rt.execution.application.AppMain org.codehaus.classworlds.Launcher -Didea.version=14.0.2 test"/>
    <property name="java.specification.vendor" value="Oracle Corporation"/>
    <property name="user.language" value="en"/>
    <property name="awt.toolkit" value="sun.awt.X11.XToolkit"/>
    <property name="java.vm.info" value="mixed mode"/>
    <property name="java.version" value="1.8.0_25"/>
    <property name="java.ext.dirs" value="/usr/lib/jvm/java-8-jdk/jre/lib/ext:/usr/java/packages/lib/ext"/>
    <property name="securerandom.source" value="file:/dev/./urandom"/>
    <property name="sun.boot.class.path" value="/usr/lib/jvm/java-8-jdk/jre/lib/resources.jar:/usr/lib/jvm/java-8-jdk/jre/lib/rt.jar:/usr/lib/jvm/java-8-jdk/jre/lib/sunrsasign.jar:/usr/lib/jvm/java-8-jdk/jre/lib/jsse.jar:/usr/lib/jvm/java-8-jdk/jre/lib/jce.jar:/usr/lib/jvm/java-8-jdk/jre/lib/charsets.jar:/usr/lib/jvm/java-8-jdk/jre/lib/jfr.jar:/usr/lib/jvm/java-8-jdk/jre/classes"/>
    <property name="java.vendor" value="Oracle Corporation"/>
    <property name="maven.home" value="/opt/maven"/>
    <property name="file.separator" value="/"/>
    <property name="java.vendor.url.bug" value="http://bugreport.sun.com/bugreport/"/>
    <property name="sun.cpu.endian" value="little"/>
    <property name="sun.io.unicode.encoding" value="UnicodeLittle"/>
    <property name="sun.cpu.isalist" value=""/>
  </properties>
  <testcase classname="com.daoedeflo.dataclass.ArbeitsZeitTest" name="SetEndZeitBeforeStartZeit_Minute_Diffrence_ShouldThrowException" time="0.008"/>
  <testcase classname="com.daoedeflo.dataclass.ArbeitsZeitTest" name="doesSetArbeitsZeitIDWork" time="0"/>
  <testcase classname="com.daoedeflo.dataclass.ArbeitsZeitTest" name="projektZeitIDunderUpperBoundShouldwork" time="0.001"/>
  <testcase classname="com.daoedeflo.dataclass.ArbeitsZeitTest" name="arbeitsZeitIDoverUpperBoundthrowsException" time="0"/>
  <testcase classname="com.daoedeflo.dataclass.ArbeitsZeitTest" name="projektZeitIDoverUpperBoundthrowsException" time="0"/>
  <testcase classname="com.daoedeflo.dataclass.ArbeitsZeitTest" name="setDateNotYetToLongAgo_ShouldWork" time="0"/>
  <testcase classname="com.daoedeflo.dataclass.ArbeitsZeitTest" name="SetStartZeitAfterEndZeit_Minute_Diffrence_ShouldThrowException" time="0"/>
  <testcase classname="com.daoedeflo.dataclass.ArbeitsZeitTest" name="arbeitsZeitIDunderUpperBoundShouldwork" time="0"/>
  <testcase classname="com.daoedeflo.dataclass.ArbeitsZeitTest" name="projektIDunderLowerBoundthrowsException" time="0"/>
  <testcase classname="com.daoedeflo.dataclass.ArbeitsZeitTest" name="mitarbeiterIDunderUpperBoundShouldwork" time="0"/>
  <testcase classname="com.daoedeflo.dataclass.ArbeitsZeitTest" name="arbeitsZeitIDoverLowerBoundShouldWork" time="0"/>
  <testcase classname="com.daoedeflo.dataclass.ArbeitsZeitTest" name="doesSetMitarbeiterIDWork" time="0"/>
  <testcase classname="com.daoedeflo.dataclass.ArbeitsZeitTest" name="SetStartZeitEqualToEndZeit" time="0"/>
  <testcase classname="com.daoedeflo.dataclass.ArbeitsZeitTest" name="testSetStartZeit" time="0"/>
  <testcase classname="com.daoedeflo.dataclass.ArbeitsZeitTest" name="mitarbeiterIDoverLowerBoundShouldWork" time="0"/>
  <testcase classname="com.daoedeflo.dataclass.ArbeitsZeitTest" name="endZeitNotOverInitialValue_ShouldThrowException" time="0.002"/>
  <testcase classname="com.daoedeflo.dataclass.ArbeitsZeitTest" name="testSetEndZeit" time="0.001"/>
  <testcase classname="com.daoedeflo.dataclass.ArbeitsZeitTest" name="setValidDatumAndLookIfReturnIsEqual" time="0"/>
  <testcase classname="com.daoedeflo.dataclass.ArbeitsZeitTest" name="arbeitsZeitIDunderLowerBoundthrowsException" time="0"/>
  <testcase classname="com.daoedeflo.dataclass.ArbeitsZeitTest" name="setDateInPresent_ShouldWork" time="0.001"/>
  <testcase classname="com.daoedeflo.dataclass.ArbeitsZeitTest" name="mitarbeiterIDunderLowerBoundthrowsException" time="0"/>
  <testcase classname="com.daoedeflo.dataclass.ArbeitsZeitTest" name="setDateToLongInThePast_ShouldThrowException" time="0"/>
  <testcase classname="com.daoedeflo.dataclass.ArbeitsZeitTest" name="SetStartZeitAfterEndZeit_HourDiffrence_ShouldThrowException" time="0.001"/>
  <testcase classname="com.daoedeflo.dataclass.ArbeitsZeitTest" name="projektIDoverLowerBoundShouldWork" time="0"/>
  <testcase classname="com.daoedeflo.dataclass.ArbeitsZeitTest" name="SetEndZeitBeforeStartZeit_HourDiffrence_ShouldThrowException" time="0"/>
  <testcase classname="com.daoedeflo.dataclass.ArbeitsZeitTest" name="doesSetProjektIDWork" time="0"/>
  <testcase classname="com.daoedeflo.dataclass.ArbeitsZeitTest" name="mitarbeiterIDoverUpperBoundthrowsException" time="0"/>
  <testcase classname="com.daoedeflo.dataclass.ArbeitsZeitTest" name="endStartZeitOverMaxValue_ShouldThrowException" time="0.001"/>
  <testcase classname="com.daoedeflo.dataclass.ArbeitsZeitTest" name="SetEndZeitEqualToStartZeit" time="0"/>
</testsuite>